\relax 
\providecommand\hyper@newdestlabel[2]{}
\providecommand\HyperFirstAtBeginDocument{\AtBeginDocument}
\HyperFirstAtBeginDocument{\ifx\hyper@anchor\@undefined
\global\let\oldcontentsline\contentsline
\gdef\contentsline#1#2#3#4{\oldcontentsline{#1}{#2}{#3}}
\global\let\oldnewlabel\newlabel
\gdef\newlabel#1#2{\newlabelxx{#1}#2}
\gdef\newlabelxx#1#2#3#4#5#6{\oldnewlabel{#1}{{#2}{#3}}}
\AtEndDocument{\ifx\hyper@anchor\@undefined
\let\contentsline\oldcontentsline
\let\newlabel\oldnewlabel
\fi}
\fi}
\global\let\hyper@last\relax 
\gdef\HyperFirstAtBeginDocument#1{#1}
\providecommand\HyField@AuxAddToFields[1]{}
\providecommand\HyField@AuxAddToCoFields[2]{}
\@writefile{toc}{\contentsline {section}{\numberline {1}Vector Potentials, Traces and BIOs}{1}{section.1}\protected@file@percent }
\newlabel{sec:curlcurl}{{1}{1}{Vector Potentials, Traces and BIOs}{section.1}{}}
\@writefile{toc}{\contentsline {subsection}{\numberline {1.1}Representation Formula}{1}{subsection.1.1}\protected@file@percent }
\newlabel{eq:representation_formula}{{1}{1}{Representation Formula}{equation.1.1}{}}
\@writefile{toc}{\contentsline {subsection}{\numberline {1.2}Layer Potentials}{1}{subsection.1.2}\protected@file@percent }
\@writefile{toc}{\contentsline {subsection}{\numberline {1.3}Traces}{1}{subsection.1.3}\protected@file@percent }
\@writefile{toc}{\contentsline {subsection}{\numberline {1.4}Representation Formula Using Potentials and Traces}{2}{subsection.1.4}\protected@file@percent }
\newlabel{eq:representation_formula_symb}{{10}{2}{Representation Formula Using Potentials and Traces}{equation.1.10}{}}
\@writefile{toc}{\contentsline {subsection}{\numberline {1.5}Traces of Layer Potentials}{2}{subsection.1.5}\protected@file@percent }
\@writefile{toc}{\contentsline {subsubsection}{\numberline {1.5.1}Vectorial Single Layer Potential}{2}{subsubsection.1.5.1}\protected@file@percent }
\@writefile{toc}{\contentsline {subsubsection}{\numberline {1.5.2}Vectorial Double Layer Potential}{2}{subsubsection.1.5.2}\protected@file@percent }
\@writefile{toc}{\contentsline {section}{\numberline {2}Transmission Problem}{4}{section.2}\protected@file@percent }
\@writefile{lof}{\contentsline {figure}{\numberline {1}{\ignorespaces Geometric setting \relax }}{4}{figure.caption.1}\protected@file@percent }
\@writefile{toc}{\contentsline {subsection}{\numberline {2.1}Vector Potential + Volume Based Formulation}{4}{subsection.2.1}\protected@file@percent }
\newlabel{eq:vp_tp}{{32}{5}{Vector Potential + Volume Based Formulation}{equation.2.32}{}}
\@writefile{toc}{\contentsline {subsubsection}{\numberline {2.1.1}Volume Based Variational Formulation}{5}{subsubsection.2.1.1}\protected@file@percent }
\newlabel{eq:var_form}{{38}{5}{Volume Based Variational Formulation}{equation.2.38}{}}
\@writefile{toc}{\contentsline {subsubsection}{\numberline {2.1.2}Energy Shape Derivative}{5}{subsubsection.2.1.2}\protected@file@percent }
\@writefile{toc}{\contentsline {subsection}{\numberline {2.2}Vector Potential + BIE Based Formulation}{8}{subsection.2.2}\protected@file@percent }
\@writefile{toc}{\contentsline {subsubsection}{\numberline {2.2.1}BIEs}{8}{subsubsection.2.2.1}\protected@file@percent }
\@writefile{toc}{\contentsline {subsubsection}{\numberline {2.2.2}Perturbed Problem}{10}{subsubsection.2.2.2}\protected@file@percent }
\@writefile{toc}{\contentsline {subsubsection}{\numberline {2.2.3}Transformation and Pullback}{10}{subsubsection.2.2.3}\protected@file@percent }
\newlabel{eq:pulled_back_bie_formulation}{{101}{11}{Transformation and Pullback}{equation.2.101}{}}
\@writefile{toc}{\contentsline {subsubsection}{\numberline {2.2.4}Adjoint Approach}{12}{subsubsection.2.2.4}\protected@file@percent }
\@writefile{toc}{\contentsline {subsection}{\numberline {2.3}Scalar Potential + Volume Based Formulation}{14}{subsection.2.3}\protected@file@percent }
\@writefile{toc}{\contentsline {subsubsection}{\numberline {2.3.1}Perturbed Problem}{15}{subsubsection.2.3.1}\protected@file@percent }
\@writefile{toc}{\contentsline {subsubsection}{\numberline {2.3.2}Transformation and Pullback}{15}{subsubsection.2.3.2}\protected@file@percent }
\@writefile{toc}{\contentsline {subsubsection}{\numberline {2.3.3}Adjoint Method}{16}{subsubsection.2.3.3}\protected@file@percent }
\@writefile{toc}{\contentsline {subsection}{\numberline {2.4}Scalar Potential + BIE Formulation}{17}{subsection.2.4}\protected@file@percent }
\@writefile{toc}{\contentsline {subsubsection}{\numberline {2.4.1}BIEs}{17}{subsubsection.2.4.1}\protected@file@percent }
\@writefile{toc}{\contentsline {subsubsection}{\numberline {2.4.2}Perturbed Problem}{19}{subsubsection.2.4.2}\protected@file@percent }
\@writefile{toc}{\contentsline {subsubsection}{\numberline {2.4.3}Transformation + Pullback}{19}{subsubsection.2.4.3}\protected@file@percent }
\@writefile{toc}{\contentsline {subsubsection}{\numberline {2.4.4}Adjoint Method}{21}{subsubsection.2.4.4}\protected@file@percent }
\@writefile{toc}{\contentsline {section}{\numberline {3}Dirichlet Problem (Superconductor)}{23}{section.3}\protected@file@percent }
\@writefile{lof}{\contentsline {figure}{\numberline {2}{\ignorespaces Geometric setting \relax }}{23}{figure.caption.2}\protected@file@percent }
\@writefile{toc}{\contentsline {subsection}{\numberline {3.1}Vector Potential + Volume Based Formulation}{23}{subsection.3.1}\protected@file@percent }
\@writefile{toc}{\contentsline {subsubsection}{\numberline {3.1.1}Perturbed Problem}{24}{subsubsection.3.1.1}\protected@file@percent }
\@writefile{toc}{\contentsline {subsubsection}{\numberline {3.1.2}Transformation + Pullback}{24}{subsubsection.3.1.2}\protected@file@percent }
\@writefile{toc}{\contentsline {subsubsection}{\numberline {3.1.3}Adjoint Method}{25}{subsubsection.3.1.3}\protected@file@percent }
\@writefile{toc}{\contentsline {subsection}{\numberline {3.2}Vector Potential + BIE Based Formulation}{25}{subsection.3.2}\protected@file@percent }
\@writefile{toc}{\contentsline {subsubsection}{\numberline {3.2.1}Perturbed Problem}{26}{subsubsection.3.2.1}\protected@file@percent }
\@writefile{toc}{\contentsline {subsubsection}{\numberline {3.2.2}Transformation + Pullback}{26}{subsubsection.3.2.2}\protected@file@percent }
\@writefile{toc}{\contentsline {subsubsection}{\numberline {3.2.3}Adjoint Approach}{27}{subsubsection.3.2.3}\protected@file@percent }
\@writefile{toc}{\contentsline {subsection}{\numberline {3.3}Scalar Potential + Volume Based Formulation}{28}{subsection.3.3}\protected@file@percent }
\@writefile{toc}{\contentsline {subsubsection}{\numberline {3.3.1}Perturbed Problem}{28}{subsubsection.3.3.1}\protected@file@percent }
\@writefile{toc}{\contentsline {subsubsection}{\numberline {3.3.2}Transformation + Pullback}{29}{subsubsection.3.3.2}\protected@file@percent }
\@writefile{toc}{\contentsline {subsubsection}{\numberline {3.3.3}Adjoint Approach}{29}{subsubsection.3.3.3}\protected@file@percent }
\@writefile{toc}{\contentsline {subsection}{\numberline {3.4}Scalar Potential + BIE Formulation}{30}{subsection.3.4}\protected@file@percent }
\@writefile{toc}{\contentsline {subsubsection}{\numberline {3.4.1}Perturbed Problem}{31}{subsubsection.3.4.1}\protected@file@percent }
\@writefile{toc}{\contentsline {subsubsection}{\numberline {3.4.2}Adjoint Method}{32}{subsubsection.3.4.2}\protected@file@percent }
\@writefile{toc}{\contentsline {section}{\numberline {4}Permanent Magnet}{33}{section.4}\protected@file@percent }
\@writefile{lof}{\contentsline {figure}{\numberline {3}{\ignorespaces Geometric setting \relax }}{33}{figure.caption.3}\protected@file@percent }
\@writefile{toc}{\contentsline {subsection}{\numberline {4.1}Vector Potential + Volume Based Formulation}{34}{subsection.4.1}\protected@file@percent }
\@writefile{toc}{\contentsline {subsubsection}{\numberline {4.1.1}Perturbed Problem}{35}{subsubsection.4.1.1}\protected@file@percent }
\@writefile{toc}{\contentsline {subsubsection}{\numberline {4.1.2}Adjoint Method}{37}{subsubsection.4.1.2}\protected@file@percent }
\@writefile{toc}{\contentsline {subsection}{\numberline {4.2}Vector Potential + BIE Based Formulation}{38}{subsection.4.2}\protected@file@percent }
\@writefile{toc}{\contentsline {subsubsection}{\numberline {4.2.1}Perturbed Problem}{43}{subsubsection.4.2.1}\protected@file@percent }
\@writefile{toc}{\contentsline {subsubsection}{\numberline {4.2.2}Transformation + Pullback}{43}{subsubsection.4.2.2}\protected@file@percent }
\@writefile{toc}{\contentsline {subsubsection}{\numberline {4.2.3}Adjoint Method}{45}{subsubsection.4.2.3}\protected@file@percent }
\@writefile{toc}{\contentsline {subsubsection}{\numberline {4.2.4}Ideas}{47}{subsubsection.4.2.4}\protected@file@percent }
\@writefile{toc}{\contentsline {subsection}{\numberline {4.3}Scalar Potential + Volume Based Formulation}{47}{subsection.4.3}\protected@file@percent }
\@writefile{toc}{\contentsline {subsubsection}{\numberline {4.3.1}Perturbed Problem}{49}{subsubsection.4.3.1}\protected@file@percent }
\@writefile{toc}{\contentsline {subsubsection}{\numberline {4.3.2}Transformation + Pullback}{50}{subsubsection.4.3.2}\protected@file@percent }
\@writefile{toc}{\contentsline {subsubsection}{\numberline {4.3.3}Adjoint Method}{50}{subsubsection.4.3.3}\protected@file@percent }
\@writefile{toc}{\contentsline {subsection}{\numberline {4.4}Scalar Potential + BIE Based Formulation}{53}{subsection.4.4}\protected@file@percent }
\@writefile{toc}{\contentsline {subsubsection}{\numberline {4.4.1}Perturbed Problem}{56}{subsubsection.4.4.1}\protected@file@percent }
\@writefile{toc}{\contentsline {subsubsection}{\numberline {4.4.2}Transformation + Pullback}{56}{subsubsection.4.4.2}\protected@file@percent }
\@writefile{toc}{\contentsline {subsubsection}{\numberline {4.4.3}Adjoint Method}{58}{subsubsection.4.4.3}\protected@file@percent }
\@writefile{toc}{\contentsline {section}{\numberline {5}Permanent Magnet FIXED}{61}{section.5}\protected@file@percent }
\@writefile{lof}{\contentsline {figure}{\numberline {4}{\ignorespaces Geometric setting \relax }}{61}{figure.caption.4}\protected@file@percent }
\@writefile{toc}{\contentsline {subsection}{\numberline {5.1}Vector Potential + Volume Based Formulation}{61}{subsection.5.1}\protected@file@percent }
\@writefile{toc}{\contentsline {subsubsection}{\numberline {5.1.1}Perturbed Problem}{62}{subsubsection.5.1.1}\protected@file@percent }
\@writefile{toc}{\contentsline {subsubsection}{\numberline {5.1.2}Adjoint Method}{64}{subsubsection.5.1.2}\protected@file@percent }
\@writefile{toc}{\contentsline {subsection}{\numberline {5.2}Vector Potential + BIE Based Formulation}{65}{subsection.5.2}\protected@file@percent }
\@writefile{toc}{\contentsline {subsubsection}{\numberline {5.2.1}Perturbed Problem}{68}{subsubsection.5.2.1}\protected@file@percent }
\@writefile{toc}{\contentsline {subsubsection}{\numberline {5.2.2}Transformation + Pullback}{68}{subsubsection.5.2.2}\protected@file@percent }
\@writefile{toc}{\contentsline {subsubsection}{\numberline {5.2.3}Adjoint Method}{71}{subsubsection.5.2.3}\protected@file@percent }
\@writefile{toc}{\contentsline {subsection}{\numberline {5.3}Scalar Potential + Volume Based Formulation}{73}{subsection.5.3}\protected@file@percent }
\@writefile{toc}{\contentsline {subsubsection}{\numberline {5.3.1}Perturbed Problem}{75}{subsubsection.5.3.1}\protected@file@percent }
\@writefile{toc}{\contentsline {subsubsection}{\numberline {5.3.2}Transformation + Pullback}{75}{subsubsection.5.3.2}\protected@file@percent }
\@writefile{toc}{\contentsline {subsubsection}{\numberline {5.3.3}Adjoint Method}{76}{subsubsection.5.3.3}\protected@file@percent }
\@writefile{toc}{\contentsline {subsection}{\numberline {5.4}Scalar Potential + BIE Based Formulation}{77}{subsection.5.4}\protected@file@percent }
\@writefile{toc}{\contentsline {subsubsection}{\numberline {5.4.1}Perturbed Problem}{79}{subsubsection.5.4.1}\protected@file@percent }
\@writefile{toc}{\contentsline {subsubsection}{\numberline {5.4.2}Transformation + Pullback}{79}{subsubsection.5.4.2}\protected@file@percent }
\@writefile{toc}{\contentsline {subsubsection}{\numberline {5.4.3}Adjoint Method}{81}{subsubsection.5.4.3}\protected@file@percent }
\gdef \@abspage@last{82}
